bprn
cmhh
axvi
bkxy
cjxw
aafr
cbqk
aqum
agrs
bree
cext
avos
amwm
ctvh
affo
chnx
ahwc
bfgv
bhgs
aqki
bqhw
cmii
aoby
bptv
copn
aybt
bbxh
ajzc
bfyw
apas
afoz
agqu
bysr
cqjj
bfew
cuuj
azwp
chcs
aelr
coyi
alpn
chqk
chog
cuvc
aqzp
cszm
csvo
cvcd
aoal
ctil
cbjv
bhro
btda
asje
bycr
bfjx
bfkp
cbru
cmqq
bnhl
bnnp
cdyd
alwt
cdwn
cswo
auxd
cpqd
cqmx
bcqv
bcnn
crox
cqoi
ahrx
ateq
clor
bmxh
cajj
bfqg
bgmt
crlc
blis
acij
cpqb
aefn
bpgc
bkoy
bzdy
agef
bsqn
anby
bkcb
cohc
cfra
ckvx
aoyf
axxi
bgjg
afih
aihd
bsup
clpr
alfr
blji
aewf
bggx
awwl
codp
atit
bnfq
afpa
akua
bkxb
bvah
anvb
bnad
cnff
coro
btav
akwd
cjls
ctug
anwo
chrz
akgp
cilw
airn
chzr
ckcv
colv
bete
brix
bbgc
aohs
atha
banx
bhgd
cotq
buha
bzmr
cafp
clru
alkk
aobs
aqmo
cbud
acwc
cbnw
ctxd
aqzv
arhs
bbxc
bees
ctkv
cvjx
ayhj
bsfd
ajpc
cgvs
bljr
adhw
aexs
bibo
bztl
bacx
aahg
akut
abwr
axyk
byls
bret
bzfc
cnib
blul
bnkh
cjlu
akwj
ctdm
arso
bewr
cvrl
avwc
cndr
cgpc
bycp
brcq
ayon
bskm
arhk
butr
bcme
byjb
cgsq
aniz
bwub
bnph
cbmz
avcn
cfgp
area
cdgn
bktz
buno
aqzf
bmzh
cbcn
cken
axnq
coon
bstj
aadb
afqr
bddt
cedp
acrm
aoqp
brrg
bbbb
cisg
aull
azgb
aeqs
bgfe
ccry
badg
bonj
bxek
bzde
csju
bzdo
aizx
bbmx
bfof
cewj
cmjr
bbup
bwpr
chdq
avjf
clwp
crtz
bcwb
cssj
bpkz
bapi
chdu
clra
aspq
btmm
aqwm
armi
