17147
34254
30251
34402
28586
39619
12641
30263
448
5290
19110
14945
14319
7121
33999
13570
10630
14360
13593
19444
26989
26782
10790
4404
31093
35960
29111
32993
29862
7700
7733
16267
11635
2029
32534
19556
19889
23793
37553
31728
17224
7767
28124
650
6147
13193
3953
20354
33251
17566
33671
11196
20142
37212
37161
7058
9265
10532
18563
12732
38587
1952
5508
10960
35662
39792
16037
26630
35772
29693
16035
34031
6195
34075
12097
15868
1441
26551
35050
37101
31743
21154
18848
31794
27325
14897
16365
34172
24706
31423
32824
30327
25936
6659
31352
495
21478
11530
21722
17874
33002
29031
24735
25866
20468
25169
12472
38049
6663
34164
21308
2794
420
15466
19449
37981
31057
36677
17561
7171
25052
18112
22458
30288
14008
14744
8717
32640
24288
21365
38231
18342
26089
1152
14248
5563
21339
2123
13110
1336
20038
38616
1056
16425
26392
32337
27827
12416
23923
38149
14147
17229
27904
13589
17231
1650
20865
19818
6392
1968
6481
4822
37249
19698
36579
26912
31353
35542
13019
30190
15643
8951
14235
26033
33870
15624
24077
9698
33019
17961
23973
3290
36584
26573
7148
9809
31387
31247
31309
13651
15225
24136
20167
3300
26820
27885
12323
22864
5781
19368
25799
24372
1253
693
2839
37169
34180
17918
36130
23580
28221
1711
35531
31527
2410
1095
6279
13465
25536
31887
6115
20716
33492
19091
3033
162
38000
10034
6210
11275
30804
29964
15279
4738
13494
38322
18308
2510
35740
21712
35341
9063
3257
27867
10280
6020
31006
33407
1088
36043
16263
12753
33181
39089
13816
5200
15832
24049
16298
22335
37037
8035
34065
14384
1455
7681
17937
6646
31960
31931
9736
39484
2260
12923
33736
12862
15735
37433
35286
575
2276
29610
31283
12801
14876
26321
4521
9402
3560
2701
26544
36952
35036
37567
38086
7113
16547
21710
13969
28376
13883
7709
25457
1628
18586
25911
2542
27376
6827
31431
31143
5282
20932
29401
18826
1428
37760
2493
34629
7518
37064
15816
34593
32083
24568
38937
13648
25940
20420
15388
89
35757
8796
1435
39607
17912
25388
2406
21894
37891
20875
38117
576
152
37392
26092
9986
22427
9728
26011
25908
12972
6331
25677
9112
7647
19714
26260
30203
38500
39294
25904
9421
31805
14825
10674
28220
27082
17033
16586
5073
34385
37978
9445
2863
21829
25663
38799
22001
35287
24507
23846
26283
28894
25518
27208
24350
11005
8110
35527
20213
13885
328
3156
2247
10638
6674
4534
22007
15531
14863
20797
21598
22109
22774
12763
17693
36949
13332
10074
31708
8846
36946
67
29265
25797
13963
13688
39170
34430
33553
34548
7160
18772
14996
12729
12953
4891
16612
28878
33348
9347
23913
17959
38067
38463
25775
5568
39663
12665
12978
5751
20579
33950
11572
32201
16121
39821
16192
30227
18443
18855
13183
17219
39945
8458
32943
33067
30468
15914
18859
24940
19907
36997
33963
30766
8037
8826
4546
7978
6235
19904
710
15171
21784
34706
1914
28115
29149
33570
21835
2854
1286
243
3037
3719
16568
31879
24743
30696
23216
18085
29935
24887
21586
24404
15913
8310
26500
34526
15056
6763
24629
25932
26978
33285
30194
23994
28892
2045
16784
29457
28366
3941
17528
15963
36739
20679
22323
28477
31868
15791
26273
24397
36348
32066
29325
35128
2122
34476
29445
25440
17329
1954
5289
26745
15357
36718
26469
27455
1202
3999
15453
433
32324
1833
6582
12849
18470
29851
16665
26261
6302
9591
6191
38900
28438
32373
9666
31360
21944
11224
15465
22836
25175
35271
8925
18623
8569
6090
17797
35191
26625
22923
4815
38250
2119
8336
39529
21682
18706
24257
26255
27412
1416
35922
34443
28821
1325
13150
22538
25620
27663
13319
22362
16352
26193
19872
14300
12052
28873
28368
1034
36092
5613
25704
1133
7022
27549
39905
2225
5918
27836
10747
25906
21345
16097
24235
35076
869
31440
31516
35827
18046
2093
13333
36573
17757
5687
30296
13626
10241
11721
19572
26045
24562
27762
39074
12693
15475
5653
37424
28625
9149
31997
36431
26767
26169
9812
23696
16434
4329
16054
34039
15100
604
5083
28741
1593
38902
21502
27014
4702
37864
30752
821
1394
16908
20152
10738
24292
18367
13644
39884
14071
14476
11274
10799
31258
21117
24395
33611
37744
32952
16720
15695
39324
31208
29305
7089
14547
31857
31803
10579
24893
20192
20990
16904
31959
10235
15876
6928
22855
34480
6438
12584
8980
20489
27389
17800
23103
26018
8815
2258
28656
17354
5274
7268
24154
19591
2883
963
26483
23873
33758
20460
13920
10870
31409
9422
5130
23825
27869
27506
37806
13668
23538
746
3747
6413
9309
15010
31107
23437
25592
25930
37000
23511
24755
18567
32737
13345
35198
34933
20127
15234
17624
2175
26933
13890
13208
36972
5074
13215
29885
11264
18142
35133
38719
17658
29542
7749
30520
16443
31222
10090
2370
29773
12660
18340
14336
33423
30799
35279
31075
24414
14100
2111
28296
23047
37057
25888
13001
35501
28841
5594
29472
14278
15158
8088
28255
943
31858
28330
28340
30713
10941
20523
2573
39473
4452
23712
14088
35749
5518
25707
12907
19543
21691
29076
13432
24503
11079
30753
28756
11335
20483
26896
29103
13586
26324
22634
29106
2751
6179
27402
935
22282
17370
8503
17691
23480
29239
35881
19852
10590
13782
36326
18737
29036
26536
19489
5313
6914
2893
11043
36878
28137
14534
34424
32341
25397
1974
31400
30196
33217
8508
12025
1179
19717
19804
16012
17278
30754
307
14289
39154
13372
23614
36788
1872
7460
9437
26475
39142
26543
24048
37509
11395
25199
38157
24069
8798
28690
23794
11396
31787
14989
27960
3019
972
23887
13510
34500
29657
12133
21006
14544
12695
29321
3767
34070
25148
7385
24687
5650
25145
27581
28876
4044
17696
38796
32054
27272
21105
6197
32319
38595
30033
19011
2452
35924
35892
31476
39661
33610
10030
24358
24772
20555
9463
6189
13606
35739
30250
19723
5218
36357
30156
14594
9211
20175
15777
26415
21839
35455
31751
16714
27557
6414
17214
11270
8452
8695
25044
16127
29863
30977
35711
30779
3307
37029
38139
37266
21431
6326
28038
1733
4045
36728
21379
9618
21846
37559
5
2482
37016
24406
16601
1002
17652
19132
28654
34973
36261
36188
22030
423
26822
38938
37155
29838
30874
30693
19766
36002
11509
30012
8421
39189
15140
13712
3362
17938
26512
31746
31704
13699
4860
2631
32920
14383
14997
10605
27162
24074
33034
34990
5890
665
28452
11305
20445
22231
36343
38792
26514
23859
33261
22794
25623
23229
4096
4620
6792
36387
38059
20672
21249
2484
27859
23253
12971
38630
4827
6966
14482
14935
11588
11950
33107
28139
32750
4414
37585
15615
32763
18572
5370
13568
10428
32699
31369
36647
36799
35059
296
18
35561
38970
29953
17946
8135
37200
35111
33296
23077
27354
34446
26764
39049
11235
23323
1032
29730
9263
10724
26236
14337
27185
2556
14455
6594
5239
35230
5175
10314
6571
38987
9022
19440
31597
14942
12121
14340
20482
32811
26304
24627
13081
24678
19223
39458
30091
37917
10856
1933
5826
39670
30039
39721
36811
29258
39444
5119
6784
36150
29356
3800
517
32363
4950
1837
13666
27454
13153
28062
24167
12149
8816
10436
38097
21165
15276
9777
5853
27052
22641
15456
30095
39159
32510
11390
33926
22747
6270
19222
113
23224
16264
22713
21108
14129
15935
17511
22631
3574
26836
4122
13286
13511
23927
21167
5332
30879
34220
32515
9892
38183
28501
39570
36080
7759
28264
2660
16182
24103
14405
34707
24060
36882
20780
38069
29344
39541
17906
31608
35648
1486
39874
10836
26302
2412
10659
39386
14446
24849
2128
14689
30063
20880
25857
27207
4775
24773
5286
6151
24392
38193
37226
21138
8085
30440
27789
12292
23321
31740
2154
30825
8825
5399
38093
13978
3710
19701
14609
37499
27806
7686
676
16583
18392
29381
700
31945
32348
19499
32584
14179
5460
31851
39138
5839
18058
27049
18901
15855
30324
36273
19150
27202
19354
9296
21473
613
36996
19102
565
8853
28544
36483
27852
27308
16790
918
27741
29192
11753
11143
27451
13356
10667
27708
36241
16872
6294
24575
8360
21295
22178
24660
23812
16017
639
33139
16029
30331
12325
24236
34050
11792
35428
17450
21651
32836
39844
12215
16688
22652
11499
23438
35298
22726
19809
412
16546
5883
17793
32648
697
31336
23576
4787
30384
16540
28988
441
21701
24984
6899
37884
27619
16136
10664
1530
13893
6272
31059
38758
11088
20301
30341
14881
15213
16956
39186
29266
18123
21398
21267
15609
17376
35494
2594
6846
25005
15206
10309
2097
5701
28403
1621
20100
271
2159
15365
16240
28770
25506
19596
22534
1848
28902
37204
37708
37422
569
32916
2871
15068
9200
31973
33490
18838
29541
38195
28058
25210
14832
4163
21046
1157
9650
36652
21084
2081
18877
11007
31091
35568
34348
27041
15956
39499
3367
14023
30871
11160
33721
6593
15952
13753
11437
39626
32353
5892
38534
4182
30589
32112
12390
6455
1859
21211
32747
15317
7445
26780
29278
35169
2103
23765
12082
19623
1012
4100
36448
32526
23368
25635
12809
36632
26002
23850
27332
12617
20343
8473
20072
20709
26772
25057
32306
4909
31606
29063
11240
31305
13225
35197
36226
37347
26926
24975
8589
9676
5913
3700
29011
12615
881
21216
8048
27714
28095
4253
25606
10798
14553
30220
35400
32407
4003
5705
4584
10163
33928
3191
4655
30863
28300
31675
27945
6389
7304
32859
5169
14354
32804
28237
25514
16371
38004
37225
15500
15738
24607
39337
2503
25218
39852
9219
8823
36030
29859
39356
19325
31160
11023
4413
36444
12490
39961
26184
13061
35984
2860
18199
25184
5514
13030
39526
25769
7621
39892
23685
35209
20624
25949
36929
32792
395
22237
9059
10469
26975
4103
21813
961
23110
15429
16697
24201
16566
23317
29351
9399
2148
27949
10003
28832
29714
16176
15359
1514
1949
38511
29052
32880
32958
29672
20405
1224
11752
33612
8464
18604
19773
4945
659
27172
3235
8868
1641
27535
21946
37905
13163
27393
34716
37062
24997
21492
23344
6388
6367
25402
38242
20656
22161
23476
37895
6118
3554
11282
35540
15644
38928
22155
39038
38846
6776
645
9194
26406
7116
28883
13306
12816
30276
36908
33898
30666
12777
32451
3939
6005
11846
17682
17732
24679
33026
36264
8434
1150
34386
34786
32400
26787
34232
37658
1863
13912
2684
38263
33936
35545
25259
20732
37548
23838
9765
35551
19899
35420
28074
83
22710
23989
19894
32761
22121
39259
3002
38167
8123
24116
14471
26814
13201
24571
32497
4885
11858
31215
38988
7622
12397
26101
6340
13218
33715
19676
23964
35541
13275
2166
18807
23264
19783
38147
36062
968
17331
20379
35180
27442
1204
14020
18426
15638
3564
1269
10421
32149
8212
23954
29588
34568
10515
28965
21574
6765
30607
19869
28043
39775
14762
23649
14671
15573
23668
10326
35207
4367
16947
34084
27484
12820
34408
30458
16694
1129
15347
11364
14598
36665
9336
34618
25640
39857
1631
10274
35726
12301
22189
39188
6511
2314
39996
9645
15522
6554
36185
8343
32569
19167
1834
5483
30268
6378
21039
17540
27934
22444
28787
31562
14672
1184
15182
26180
35949
956
10978
36462
2189
11216
20605
27067
32780
14108
15451
10847
6250
19357
17911
20759
10204
1681
4689
3009
8289
32251
21442
11161
3900
24641
17059
9808
25158
39190
39233
20509
10186
5108
39594
32686
38789
13378
15860
14669
16375
12455
27744
27218
36124
8012
33497
20823
18321
25115
37228
38156
14879
14585
10911
3207
12560
3182
6140
23764
39136
16273
1164
39000
5047
39666
30952
252
3749
4291
24683
39055
18997
21699
30184
5581
1802
24890
36069
23488
26960
31575
18815
8076
37099
37609
211
34977
17853
21945
37902
34508
24026
35706
30017
14463
37535
24869
29833
5396
24186
19743
24718
3277
10040
27302
39299
22678
20080
10244
3579
29638
29583
25798
17216
906
14286
39662
13471
554
23064
36026
31330
38619
12871
23305
2570
15991
21926
27285
36583
8794
29179
26240
25682
30378
34705
16482
9884
6635
33805
425
37960
1670
33155
34140
19053
21349
36530
8765
17350
16927
37624
29659
5900
1295
539
1151
2698
34135
20893
14870
22831
17483
21523
15568
29293
4157
17704
6103
13556
34010
5585
4051
24648
20464
5680
7980
6092
5043
22608
35952
23111
4471
5430
13582
37113
26779
23275
18297
17007
19131
36364
9965
26215
2071
20835
34922
4569
20502
15688
1178
22624
10511
26727
13581
38224
9156
23208
36740
7670
31617
37772
25208
35272
1880
22540
24163
35557
35142
13530
26596
31958
3189
8191
23703
8791
29058
34709
20690
38931
33290
23112
8043
24454
26643
2753
13630
15612
18549
38930
9620
22906
26148
8214
4165
25783
23058
2868
9469
9389
1044
23063
13522
32309
9725
36257
31319
22519
1756
33211
29755
37835
8890
37869
6540
5733
38247
33329
19073
21579
23054
29733
30243
11037
32484
21796
22814
19251
1934
29041
5629
35666
24327
14040
5982
34760
34318
37471
1912
31171
24508
10499
22722
34519
1512
13382
1687
18909
14941
39481
27415
11300
12374
14462
23352
5983
28554
15642
27329
29703
13994
11490
27754
4583
1137
34763
3605
30420
10518
35629
34884
21709
9598
15014
19873
21758
29955
32664
10170
26141
14746
15927
2339
3750
15459
2291
4135
23911
4035
7903
23752
26000
20154
30690
23826
5773
26794
21804
31910
24821
34881
7904
228
17922
33919
21327
6355
9384
20248
14992
21016
24218
29781
28581
5504
15439
13769
38835
7658
13039
32489
23316
11653
7689
38153
28525
31111
25198
39912
29875
5950
35774
1250
8155
32765
8511
8233
9450
38304
35704
10208
13670
29662
24888
5756
1549
22065
28112
12177
32274
16327
12715
34719
23408
13787
16220
5353
20575
19512
32109
38961
29712
31824
3856
18656
5321
38694
23123
5796
19318
1042
11824
10819
20715
10508
19697
13884
23441
33851
561
19172
36481
31490
21423
37811
16491
27866
16276
5597
1360
2197
18738
36571
12707
7246
37733
32898
7541
633
31121
25048
39109
9906
25996
34377
31211
14719
264
19780
18093
5859
3866
15852
29711
29204
30830
9821
1069
16655
6100
12899
17710
27996
36206
37912
30206
31094
26866
22689
12002
26107
17900
1026
8112
10852
18008
158
718
19432
30127
33927
4167
15203
35845
18097
25252
21782
33158
32325
27051
28705
12502
9695
1145
30783
6572
17479
37216
30211
1278
4093
21445
3518
25
39705
37933
17529
31582
31901
9058
18411
11016
2574
35175
32666
23230
713
819
13075
26328
21791
23678
8672
5221
12968
26014
34787
20618
20943
28799
37780
30373
17994
18014
34033
22301
33020
8963
12334
3769
22120
33725
34404
7851
15269
4017
18649
437
29725
7988
38210
20957
23400
6527
14365
6610
13331
9793
30795
5403
30207
16883
2028
19949
5217
17794
35882
19273
8620
20558
15681
7071
3229
10634
10137
33140
18532
27721
19920
32227
19204
5485
39810
11010
23319
19507
22358
29898
24415
15948
32483
29984
15034
19719
6087
5494
34278
19794
31007
13674
15896
797
7992
2731
37277
35710
31052
37522
32892
25712
37947
5584
9267
29613
31436
35093
19366
6907
38141
26270
15680
15964
36214
37516
22574
9335
14497
10296
39882
15641
29603
4363
13328
497
15502
33790
30746
23455
2679
20717
14406
20016
3599
39284
14447
23803
34196
34395
13016
38565
32840
7796
2253
11208
7007
13514
28209
19935
28678
2250
5802
36291
5297
5208
20163
21152
35028
27638
16105
5845
33727
30433
11477
34570
26464
33676
27563
7284
33814
22260
25032
9508
35735
30446
30550
18250
8091
7172
9763
38357
15478
98
35239
17026
7292
29928
27538
4621
36756
22488
3018
36784
29927
7623
20035
6555
7887
15490
2642
16353
1572
29384
20701
24513
13424
32218
37725
26
35530
24086
34
27930
13991
16986
24769
30339
39552
466
5529
10430
38211
37168
16750
18753
17462
17996
10218
30474
16518
28240
18711
6300
2703
13857
39105
21631
11217
3910
143
35114
11643
13904
15549
2889
21319
16475
21282
39304
23539
31332
24370
36268
5109
38725
8300
36631
20907
22452
4969
39605
2621
16746
31478
12523
28260
36868
12684
23659
20986
5033
37677
6767
14202
4092
35941
12765
2181
1423
23446
15647
35061
27897
12915
34940
16971
13763
32229
23550
27273
4224
3506
18863
15047
32259
20045
12988
5922
13182
14548
1849
12992
21947
2272
16884
34320
27551
37052
14056
15543
27687
36119
35025
14983
13415
23215
35597
22343
18231
30208
4780
21367
25470
19540
11954
31246
19597
2507
25103
12354
23379
37995
28769
16937
30668
7515
18918
2176
29043
31367
32141
6487
30048
2420
39698
21149
36134
14183
16916
26114
38581
30293
13351
27088
8395
6379
26279
16377
39483
8523
34935
19528
4134
34565
39261
25167
32033
35814
18556
11527
21096
19439
4280
1865
2311
15859
22617
27349
16384
2779
38255
3477
37955
18946
7589
22765
2129
23666
23104
13130
8978
33236
30112
22350
39205
2538
2475
38862
7283
20713
23385
29105
12071
18030
6216
27786
25219
31259
2878
20449
13704
28457
14971
32350
22607
39971
7345
26373
12662
7326
31974
29515
15240
1143
17144
32774
8687
13817
33881
12620
16173
4071
27452
10786
36156
32334
22200
29038
538
23312
28711
12655
28458
129
199
20294
24619
29681
37551
28023
21906
31090
33841
25451
18890
33631
38807
15877
6703
37154
8962
38235
30298
32359
553
27211
10295
39408
21304
37886
19672
19767
13675
10226
31577
21573
18255
14429
12246
4024
7453
5184
7894
17378
4
22300
9094
13391
26842
18632
15824
29840
1900
34780
2035
30962
34694
12569
36416
33867
32088
10304
12482
2635
5970
18033
12346
35897
26413
10338
15015
6601
4633
28396
7512
24612
224
30456
13493
5575
1268
28404
11482
18325
4887
34512
13661
6543
23959
3333
8730
38671
4472
1823
4852
1616
28637
9224
22702
16969
34698
31811
26716
1227
35604
34211
35712
33174
19891
25353
16031
35033
16495
5442
21331
26857
7195
2849
38897
2496
6940
23233
24281
27063
26921
20274
29360
14530
9387
14623
20953
10001
24830
12361
24982
577
28186
6825
14189
26560
21968
32657
31315
2831
34651
35127
21513
5757
12563
21820
10151
16498
2658
16701
39199
13021
6477
7234
29257
34091
16356
1223
21525
22579
31166
7450
14954
22731
24445
14155
13833
5380
8047
32931
13508
29234
16964
23203
16950
30655
34074
29559
33524
33506
8509
10717
5626
35869
11258
15599
29802
18823
19356
25632
23791
14066
37554
2763
10681
37002
12594
8161
4883
9104
16227
3153
32949
12158
9608
34822
28536
7693
35079
18402
9944
15846
34862
9866
33989
371
7716
35573
1307
28495
11694
2147
14581
26032
25295
3831
30304
24472
4937
13767
5098
22844
8235
39014
1940
31595
21197
11543
37642
38104
9256
36400
24052
20948
6364
12875
23250
32145
27468
39117
9405
24509
10105
35943
8960
28326
23810
7702
33645
36198
10521
31756
15682
3089
14433
26046
14786
32155
38971
15685
21178
34455
27459
3195
6430
23113
16595
13325
13246
19441
26607
2927
17178
3556
2654
30955
31386
14858
30877
33560
16856
6888
19634
581
9667
7041
29
28213
22410
36441
12030
25367
34014
5915
21988
7599
30504
28410
2710
18561
30621
6823
30988
23020
16700
17852
19270
33683
8217
8108
38151
25795
30287
37944
3705
19663
29589
7634
22956
18301
29281
34238
34943
17678
17062
15967
11289
8049
9779
4200
10781
30229
15854
28051
17366
35841
17505
20236
37430
36077
15373
5997
13835
15127
4360
10482
17223
34366
4892
3135
31647
38876
2200
16762
18377
5521
16716
12018
39604
35134
4664
38733
11552
15809
22712
25844
22665
33488
39326
37355
17122
18842
22582
1230
36060
20111
11371
24054
5841
2215
1239
2026
20691
3140
29224
31128
24185
14953
21044
998
13346
5406
4649
9670
15187
35487
17146
16312
21298
33336
33559
29575
28689
4231
30513
25174
20348
7715
38351
10307
25967
7322
24884
31935
21815
30144
28794
20437
26924
38208
12863
4903
15114
11060
28428
7626
10750
39156
9894
35103
33686
27262
4676
4265
14287
39559
33903
25084
3915
4967
1343
24916
37842
5229
112
2118
14422
17308
21717
11800
10435
11447
17534
38957
23766
27034
889
26313
31810
24977
14857
32271
19492
38172
38915
14965
2217
10460
23349
5246
29198
29098
21801
34663
33478
31786
30526
931
12513
3292
35619
27
2824
63
22438
3383
1222
34058
29343
12885
21919
19987
23378
23759
15092
24681
18518
26804
22991
16006
25075
23178
6102
23497
18977
14659
37691
26581
8352
30541
33021
30200
5998
9567
1517
26753
39646
20031
29355
37213
5608
12045
2894
7165
14777
37374
882
10129
24633
26627
29779
34870
2352
23339
18067
8738
12656
36780
3206
13665
4498
7830
2463
20649
20322
35122
38553
16249
39287
25654
36991
9717
34272
4632
3834
21698
36526
37257
7360
35310
30056
28170
29006
34333
37963
11165
9446
10431
1352
33704
22083
31686
25588
5964
31219
26713
12028
14753
4547
34005
13166
18313
36857
29557
30898
20902
14944
19493
13590
21340
6496
8578
15790
18951
9677
37668
17951
13731
2681
20542
13405
4056
20768
27100
9071
23777
29594
39486
36814
29483
7704
32831
1979
19115
4070
3699
29453
12049
4759
8647
35683
26838
35902
2357
23028
29459
24730
6871
12317
9950
6576
14030
11359
37614
6607
4263
28216
10006
23707
14378
6903
9522
25992
35006
17914
13477
22431
22293
14251
10571
20783
25130
29869
29751
2501
14804
9382
16663
27515
23473
3479
10189
14073
11949
5118
3558
15436
12998
4349
15978
10990
24022
14313
35580
17334
33191
15823
38507
38243
36661
11387
20342
7596
23261
11940
7724
8852
29486
14709
12714
16042
39674
16892
21849
14191
3405
27116
8195
4138
18220
18146
2326
23161
29989
23394
34715
10731
35392
38457
30022
14120
26179
592
32511
22979
18714
35602
35454
4757
3137
7728
14135
28891
24267
13179
23912
8313
6030
37181
5854
31274
36353
7649
30939
37726
14905
28289
21924
13549
36517
6307
17419
38812
33901
2586
19094
19269
11392
38251
6600
39671
35480
4525
2216
16427
37643
27104
2580
37010
27622
17895
5660
38664
29216
12200
26740
18186
7249
11273
32928
16793
32773
30706
33667
1377
15911
2226
13184
38442
16009
4588
8614
18775
30099
32010
26951
28699
17506
4274
777
18778
26756
23602
25574
18507
8087
22845
11967
12874
9993
28239
8945
32431
30640
16167
38345
38083
25261
33499
31828
11352
1658
37349
21240
38128
26190
35770
4636
28173
14664
12573
10566
32050
13992
11966
21611
23663
20995
33441
29246
22761
36930
4235
12083
27186
477
30064
6602
11150
26615
27059
1398
9872
6199
34415
37494
24047
9476
21399
17894
6445
11529
37040
21092
23763
11848
13545
13407
20675
13084
10132
14013
36710
38473
24020
12184
36117
37987
11001
23013
34354
5695
37597
1536
36017
14575
5725
35997
34270
21265
19797
21918
26128
1924
38905
39722
36428
20204
4641
19622
24242
26948
7483
33151
33983
34260
26430
3850
1545
13632
20545
38612
20882
27148
17103
24477
14611
18759
34903
35435
28651
15674
4917
2549
27845
37482
26964
16522
28952
19219
21150
15679
13943
6099
4007
33115
18174
28929
28325
28870
16542
39096
18691
14868
68
15521
36358
8117
10193
19817
2100
748
29678
9007
11242
2171
22028
16643
2417
17833
14060
28271
18655
9097
21082
4943
7673
34081
22723
37299
32034
5359
7929
7927
39865
33944
22587
24349
5904
12130
2939
34997
10737
28612
8255
13676
31023
36269
18998
25246
17487
26388
101
14201
416
14795
21314
17056
14866
27377
8210
39460
32004
6247
27820
6614
35163
6744
39479
18104
4897
27241
5882
39677
13220
813
17590
14631
16319
7174
31032
10775
7490
31228
11722
9315
29794
35660
22649
1238
38940
12940
14603
3176
37411
2784
38365
1671
1881
17916
22578
18262
33381
18070
32460
22509
28748
24429
22546
33886
25687
18157
25475
33370
37166
16162
4691
31638
34108
38171
14372
38677
30645
9582
39521
15968
26571
11056
12734
5464
21510
18605
34880
8818
20972
3947
14789
29829
419
37706
2823
35032
24484
4686
4872
34697
7155
26928
15570
10562
25459
11892
12674
31383
39472
38918
9891
8095
26425
2471
17116
16656
18718
3158
8694
16905
10802
27006
15087
15728
6466
34631
9426
6830
24780
35815
31269
19728
14312
39131
2063
19603
24814
39965
23628
39209
19675
9088
12305
31469
38256
20262
15778
37050
38549
12778
3249
35800
2987
14277
20663
33038
15074
36338
28378
17388
28360
32798
39151
24251
17189
14725
9888
11138
28682
24537
31731
21647
4058
38383
12848
27791
14126
38140
13855
35488
38655
21113
16869
28071
19339
39197
5071
24385
18209
6990
3611
31594
27212
21621
25055
36025
21217
1089
5916
37060
1461
5953
33389
29810
19327
33756
16674
5558
28196
23932
4568
34722
21950
30110
201
17979
35410
39100
10888
28752
27127
18327
18629
8548
25680
15987
2404
8063
11697
33268
17982
33640
14343
3930
32344
6868
8997
39614
30767
7736
31917
7327
4684
30824
32257
3656
13174
24262
30652
9287
4009
2820
9628
39508
23721
3173
24534
6215
18410
39376
30058
23715
16556
24494
23056
37813
18241
17041
25751
807
9079
35014
6055
455
37044
22217
16647
9971
22499
36810
26098
15038
17175
8394
23841
4859
18099
36621
5959
39617
17342
10475
27523
36892
22252
32181
16245
24818
2455
9298
17055
9093
18235
26790
24602
32753
9630
18295
37258
1322
2607
26367
37475
1803
39683
3495
33256
3848
23609
1310
34713
16440
465
2652
9834
33008
2085
15098
7867
1112
2951
39956
38683
27517
35493
28673
28830
1369
28856
33923
18339
30500
6361
38037
23010
37235
1854
35610
16600
16717
27431
11614
30750
1251
5719
2922
30581
4788
20333
38464
18646
17706
5173
3640
39814
36317
36969
30584
12392
35471
38352
39204
31645
20638
14816
39952
26863
21437
17272
35804
39586
22806
11906
5457
29182
8371
11053
11943
6683
25204
28839
18360
5156
24546
5174
19029
19193
14513
38321
1781
16979
24035
18857
10387
10161
13823
11294
4234
30353
38280
11910
22284
16530
9193
33988
802
18912
27234
14262
31921
17374
11771
6623
39339
10043
686
8539
12005
39717
19417
21545
9321
14168
37586
15095
26219
5895
26015
27106
18370
515
25909
2481
12666
10553
649
26673
8611
30544
10757
20130
6963
28571
9826
33337
33618
4242
531
30893
2723
11764
17962
22355
1219
24310
7951
16172
27399
19060
3205
38767
29086
31636
30785
16628
32013
19497
959
13614
35363
5646
20369
3094
37104
16322
11997
25991
14309
17110
11057
33123
14239
22798
15669
24842
13367
21482
37239
25718
32639
24068
28851
23505
30644
39316
20359
34441
36251
21221
32226
13056
15557
33480
28078
30087
3565
22505
6549
14712
33639
5493
34695
26709
6008
11286
38504
2213
13
14925
4461
26197
9517
24037
23363
38197
35055
15903
24180
25793
6145
27514
21652
38080
30381
18530
9118
6590
14366
950
879
17080
3641
7027
30068
35459
39710
14937
12146
5352
13298
10368
3881
29911
10079
2489
22811
8447
12910
29834
16521
34627
17471
1537
11369
11269
20760
22851
5823
22635
23695
39165
39633
12462
18543
21692
7888
13611
33546
15305
22527
34195
8147
1794
27761
19071
12737
24475
14899
26427
2353
29624
10709
12337
37356
12954
4307
8787
28492
26245
29481
11290
18407
18109
10358
3684
37908
12535
6818
22273
2834
15303
16349
37176
9231
17135
7754
3441
17452
261
32420
8265
23948
22796
33201
9939
21446
25370
34852
23906
9689
4439
8345
16798
12312
18181
19832
9153
32674
19527
23433
15031
6521
17815
14783
